…
The researcher wants to compare the number of days people in each of
these 4 groups exercised. Import the data into RStudio. I recommend
using the graphic interface to import data. File \> Import Dataset \>
From text (readr or baser)

Run a one-way ANOVA in R.

``` r
# Load the dataset from .csv 
filepath = 'data/data_assignment4_q1.csv'
df_1 = read_csv(filepath, show_col_types = FALSE)
df_1
```

    ## # A tibble: 200 × 2
    ##    group    DV
    ##    <chr> <dbl>
    ##  1 A         2
    ##  2 A         1
    ##  3 A         3
    ##  4 A         2
    ##  5 A         2
    ##  6 A         1
    ##  7 A         1
    ##  8 A         1
    ##  9 A         2
    ## 10 A         1
    ## # … with 190 more rows
…
Import the data into RStudio. I recommend using the graphic interface to
import data. File \> Import Dataset \> From text (readr or baser)

Run a two-way ANOVA in R.

``` r
filepath = 'data/data_assignment4_q2.csv'
df_2 = read_csv(filepath, show_col_types = FALSE)
df_2
```

    ## # A tibble: 180 × 3
    ##    IV1   IV2      DV
    ##    <chr> <chr> <dbl>
    ##  1 A     short 2.19 
    ##  2 A     short 1.24 
    ##  3 A     short 0.461
    ##  4 A     short 0.396
    ##  5 A     short 2.00 
    ##  6 A     short 1.34 
    ##  7 A     short 0.631
    ##  8 A     short 1.04 
    ##  9 A     short 2.60 
    ## 10 A     short 2.96 
    ## # … with 170 more rows
…
